5 Data Structures | R Cookbook, 2nd Edition
…
Further suppose we want to append a new row.
First, we create a one-row data frame with the new data:

newRow <- data.frame(city = "West Dundee", county = "Kane",
                     state = "IL", pop = 7352)

Next, we use the rbind function to append that one-row data frame to
our existing data frame:

rbind(suburbs, newRow)
#> # A tibble: 18 × 4
#>   city    county   state     pop
#>   <chr>   <chr>    <chr>   <dbl>
#> 1 Chicago Cook     IL    2853114
#> 2 Kenosha Kenosha  WI      90352
#> 3 Aurora  Kane     IL     171782
#> 4 Elgin   Kane     IL      94487
#> 5 Gary    Lake(IN) IN     102746
#> 6 Joliet  Kendall  IL     106221
#> # ℹ 12 more rows

The rbind function tells R that we are appending a new row to suburbs, not a new column.
It may be obvious to you that newRow is a row and not a column, but it is not obvious to R.
(Use the cbind function to append a column.)

One word of caution: the new row must use the same column names as the
data frame. Otherwise, rbind will fail.

We can combine these two steps into one, of course:

rbind(suburbs,
      data.frame(city = "West Dundee", county = "Kane",
                 state = "IL", pop = 7352))
#> # A tibble: 18 × 4
#>   city    county   state     pop
#>   <chr>   <chr>    <chr>   <dbl>
#> 1 Chicago Cook     IL    2853114
#> 2 Kenosha Kenosha  WI      90352
#> 3 Aurora  Kane     IL     171782
#> 4 Elgin   Kane     IL      94487
#> 5 Gary    Lake(IN) IN     102746
#> 6 Joliet  Kendall  IL     106221
#> # ℹ 12 more rows

We can even extend this technique to multiple new rows because rbind
allows multiple arguments:

rbind(suburbs,
      data.frame(city = "West Dundee", county = "Kane",
                 state = "IL", pop = 7352),
      data.frame(city = "East Dundee", county = "Kane",
                 state = "IL", pop = 3192)
)
#> # A tibble: 19 × 4
#>   city    county   state     pop
#>   <chr>   <chr>    <chr>   <dbl>
#> 1 Chicago Cook     IL    2853114
#> 2 Kenosha Kenosha  WI      90352
#> 3 Aurora  Kane     IL     171782
#> 4 Elgin   Kane     IL      94487
#> 5 Gary    Lake(IN) IN     102746
#> 6 Joliet  Kendall  IL     106221
#> # ℹ 13 more rows
…
