4 Input and Output | R Cookbook, 2nd Edition
…
head(tbl, 2)
#> # A tibble: 2 × 5
#>   `Country / Dependency` Population    `% ofworld` Date   Source (official or …¹
#>   <chr>                  <chr>         <chr>       <chr>  <chr>                 
#> 1 India                  1,425,775,850 17.5%       14 Ap… UN projection[89]     
#> 2 China                  1,409,670,000 17.3%       17 Ja… National annual estim…
#> # ℹ abbreviated name: ¹​`Source (official or fromthe United Nations)`

The extract2 function is a “pipe friendly” version of the R [[i]] syntax. So it pulls out a single list element from a list. The extract function is analogous to [i], which returns element i from the original list into a list of length 1.

In that table, columns 2 and 3 contain the country name and population,
respectively:

tbl[, c(2, 3)]
#> # A tibble: 10 × 2
#>   Population    `% ofworld`
#>   <chr>         <chr>      
#> 1 1,425,775,850 17.5%      
#> 2 1,409,670,000 17.3%      
#> 3 337,189,834   4.14%      
#> 4 278,696,200   3.42%      
#> 5 229,488,994   2.82%      
#> 6 216,746,934   2.66%      
#> # ℹ 4 more rows
…
